0.9998509440158803 0.013250237686134156 -0.011068918276579992 -0.00430699
0.013332460713849073 -0.9998838261218128 0.007387810996346381 -0.00821621
-0.010969742105734641 -0.00753428571697514 -0.9999114457275047 -0.000437264
0 0 0 1
