0.9998648677338252 0.01391420578517046 -0.008754493074323171 -0.00216731
0.014062079070116777 -0.9997555325319071 0.01706262301256278 -0.00873284
-0.008514940037735268 -0.017183423675478125 -0.999816095963124 -0.00121319
0 0 0 1
