0.9998211663822997 0.014695941975790393 -0.01190229151810886 -0.00347238
0.014806429057356161 -0.9998476055055673 0.009248536281635156 -0.00762848
-0.011764561721854465 -0.009423112767416331 -0.9998863935634213 -0.00084915
0 0 0 1
