0.9996077271619122 0.02787069277974307 0.0027597612530211634 -0.00197025
0.027790013089288176 -0.9992782973653764 0.025895937655391884 -0.0172888
0.0034795072486907327 -0.025809085581088086 -0.9996608345487856 -0.00466509
0 0 0 1
