0.9996852806034142 0.02222179571220375 0.011641801415492897 -0.00598019
0.02201219586923687 -0.9995986425460524 0.017833032638994828 -0.0185838
0.012033410899950216 -0.017571158624694806 -0.9997731999842256 -0.0054423
0 0 0 1
