0.9997612002509335 0.021757436575025185 -0.0020387315902254256 -0.00332169
0.021800383301810715 -0.9994702467541101 0.0241654534650716 -0.0155258
-0.0015118732444749875 -0.024204127890964485 -0.9997058939669861 -0.00359899
0 0 0 1
