0.9997340323134317 0.014787291118110684 0.017697475970152404 -0.0148179
0.014548619161693152 -0.9998024859091305 0.013539824607827785 -0.0228171
0.017894197797439584 -0.013278749613987341 -0.9997517054218387 -0.0066009
0 0 0 1
