0.9973842826884577 0.035837998848365936 0.06277125524135502 -0.105056
0.03599014041366346 -0.9993513067947387 -0.0012943726870421127 -0.0493384
0.06268414822772667 0.0035501332640753046 -0.9980271008919407 -0.0157685
0 0 0 1
