0.998414440472471 0.02806295027209129 0.0487962690998938 -0.074621
0.02767849990287869 -0.9995804242154535 0.008536753972141707 -0.0403438
0.04901536186920855 -0.007172610911004752 -0.9987722703166876 -0.0120258
0 0 0 1
