0.9982076608277404 0.029666463257185246 0.05197467481977517 -0.0808633
0.029469716824427682 -0.9995553274470352 0.004547874507787114 -0.0429644
0.05208648246041709 -0.0030080442251757995 -0.9986380475501824 -0.0126053
0 0 0 1
