0.9943966782341143 0.06148476330778498 0.08599343113253054 -0.153628
0.06534028380166065 -0.9969464191434527 -0.04276078425106178 -0.0632343
0.08310170653890363 0.04814001701321956 -0.9953776394576528 -0.0248878
0 0 0 1
