0.9944804696600872 0.059139475221787474 0.08666670603607994 -0.157479
0.06331595607295555 -0.9969208621299629 -0.046258884083160035 -0.0623402
0.08366412117042928 0.0514909421213407 -0.9951627996002649 -0.0254937
0 0 0 1
