0.9884701902830659 0.026783032906232795 0.14902802444541477 -0.220622
0.04834784852021064 -0.9885378293623501 -0.14302253480846888 -0.125757
0.14348926254332153 0.14857869654804684 -0.9784350783096736 -0.00214545
0 0 0 1
