0.991491870723081 0.03373516211301548 0.1257211562437056 -0.209041
0.049280466978831004 -0.9912233479797853 -0.12266910774149267 -0.112548
0.12047948316785734 0.1278210204033521 -0.9844523761354086 -0.00844594
0 0 0 1
