0.9943710656641643 0.030247979434930402 0.10154429334048523 -0.198064
0.0403953740686026 -0.9942261254235479 -0.09941139411122585 -0.099752
0.09795099552210867 0.10295373361556068 -0.9898515702926599 -0.0156294
0 0 0 1
