0.9874189286028855 0.03118999221642816 0.15501949497488668 -0.229073
0.055770612122010725 -0.9860471788104693 -0.15684578407930153 -0.133298
0.14796451689599774 0.16351802819705782 -0.9753811338109223 0.00106607
0 0 0 1
