0.9865358184416663 0.03402569785148879 0.15996665532963736 -0.232252
0.05993926867940717 -0.985282697516115 -0.16007901188333726 -0.136778
0.15216557758510837 0.1675119633372106 -0.9740561478359978 0.00239256
0 0 0 1
