0.9766369366120815 0.04911036882349129 0.2092091434880174 -0.260886
0.0850170485174859 -0.9824091846897292 -0.16626573699544087 -0.161251
0.197363612417144 0.18016760394499984 -0.9636323152439279 0.0111317
0 0 0 1
