0.9617977491062207 0.07355978440255867 0.2636930942077487 -0.322447
0.11446977356068466 -0.9830384256933663 -0.14329035051696193 -0.19447
0.248680036905203 0.16800122537933265 -0.9539045169805359 0.0204076
0 0 0 1
