0.9587553058410403 0.0748468387350433 0.274201047140641 -0.329022
0.11564453287971097 -0.9839680958296149 -0.13576865766617607 -0.1998
0.2596432274038494 0.16187877291606917 -0.9520402603579854 0.0207596
0 0 0 1
