0.9549999615806655 0.0726348360319197 0.28757477979743545 -0.338891
0.11423413466431678 -0.9848305354978382 -0.13061155702515784 -0.201512
0.27372547535518515 0.1575848880624581 -0.9488105012044927 0.0251256
0 0 0 1
