0.9537056341681516 0.07297983449030107 0.29175247576274643 -0.342638
0.11453697100360116 -0.985140499332104 -0.12798233803542222 -0.19923
0.2780770498067827 0.15547392171506166 -0.9478929338471169 0.0259418
0 0 0 1
