0.9487638324337346 0.06590001511145947 0.3090378266069738 -0.357451
0.11230612254745852 -0.9844805641985703 -0.13485308136494328 -0.204455
0.29535491379695683 0.16265056631802483 -0.9414405282185478 0.0318391
0 0 0 1
