0.863157992643946 0.05651925253179467 0.501760753574969 -0.580752
0.18484112394708146 -0.9601076747701157 -0.20982614647727094 -0.225825
0.46988513344524235 0.2738591370408676 -0.8391716954392455 0.0814602
0 0 0 1
