0.8383933079012882 0.053781559839200466 0.5424059412355274 -0.663342
0.18915514862169272 -0.9619847563123276 -0.19699151852964997 -0.221089
0.5111917360602002 0.26775524727626643 -0.8166946409397973 0.134835
0 0 0 1
