0.841079351439717 0.048971679269266946 0.5386903555952095 -0.648416
0.18718962212906898 -0.9607100478050867 -0.20492986462086185 -0.215797
0.5074894776731057 0.27319952173438455 -0.8172003740669618 0.119305
0 0 0 1
