0.8473365750666796 0.0572935817409911 0.5279566024263336 -0.62756
0.1921616783393867 -0.9598744969575127 -0.20424210992925068 -0.22116
0.49507031614919045 0.2745148367244481 -0.8243463995712544 0.102694
0 0 0 1
