0.831145924421794 0.057778931631772695 0.5530443448553942 -0.674759
0.2018909832344775 -0.9580716839508592 -0.20331915625484218 -0.222625
0.518108563146429 0.28064255463321297 -0.8079624207370582 0.148238
0 0 0 1
