0.778508331733683 0.022295932250364872 0.627238127688619 -0.753544
0.24051621084778896 -0.9336758445927991 -0.26533256404622646 -0.251771
0.5797212517586872 0.3574245495611767 -0.7322369572961545 0.229214
0 0 0 1
