0.7874216458660727 0.0309910425613016 0.6156352060291298 -0.738097
0.24214628058650067 -0.9339996782762069 -0.2626971255611037 -0.241709
0.5668618265677176 0.3559271783116684 -0.7429559295943501 0.21559
0 0 0 1
