0.7342325055010954 -0.004188127058853658 0.6788851798775122 -0.793534
0.2579697192816752 -0.9232547516770551 -0.2846968342631731 -0.277062
0.6279763146801931 0.38416548920677124 -0.6768032395779475 0.269121
0 0 0 1
