0.6927836952354631 -0.02445200059400099 0.7207307758676941 -0.830407
0.2668316263630095 -0.9198015583947139 -0.28769076514050224 -0.277551
0.6699639055862402 0.39162123645380537 -0.6306989554217008 0.302081
0 0 0 1
