0.6872314482019496 -0.024062378896145334 0.7260399014683072 -0.834862
0.2693936322813033 -0.9197447905062212 -0.2854760781973738 -0.274578
0.6746406506344966 0.3917786648843011 -0.6255952927036276 0.305844
0 0 0 1
