0.5159516736939181 -0.09808290532574887 0.8509839094220906 -0.996927
0.35682845520552897 -0.8785228145698712 -0.31760213764373096 -0.338153
0.7787601196569329 0.4675226282898955 -0.4182765449661596 0.475486
0 0 0 1
