0.5259850757047387 -0.0888612835707252 0.8458388572405761 -0.986855
0.3576383786983972 -0.8792142617966748 -0.3147651059684194 -0.337801
0.771644017807345 0.4680661856356338 -0.4306733746665173 0.46442
0 0 0 1
