0.5112347271867455 -0.10416655216817866 0.853105141895 -1.00095
0.3565303910826627 -0.8774818012328827 -0.3207986420475297 -0.341026
0.7820007250333836 0.4681613161235021 -0.41146062768237357 0.480951
0 0 0 1
