0.45985109947377023 -0.12536505878172594 0.8791021376094017 -1.04337
0.3789818273327131 -0.8675891756287065 -0.3219655212650249 -0.354197
0.8030627253610534 0.48121993346967246 -0.3514507572436312 0.53488
0 0 0 1
