0.4954688788674617 -0.11576513184310522 0.8608768926642005 -1.01643
0.3613934536410562 -0.8737556268489803 -0.3254932813671209 -0.342541
0.7898768016211204 0.4723870645975548 -0.3910819600310085 0.496879
0 0 0 1
