0.45510066005036137 -0.1300409196628506 0.8808931538131998 -1.04956
0.3780720899932489 -0.8674588366526117 -0.32338314965599946 -0.357939
0.8061915926067836 0.480213000580511 -0.345616246845544 0.547874
0 0 0 1
