0.4230997528076969 -0.1430987702324714 0.8947118760427967 -1.06517
0.3955869860795327 -0.859196635367123 -0.3244874084126024 -0.371843
0.8151671826187422 0.49122691674191654 -0.3069178728090837 0.58838
0 0 0 1
