0.2959335780494247 -0.22248786971947532 0.9289362008289671 -1.12506
0.42072119200443425 -0.8427248533130852 -0.335869766735274 -0.426111
0.857564572484914 0.4902182875374288 -0.15578521939721285 0.712746
0 0 0 1
