0.32300342339876753 -0.18266546455073662 0.9286022380616685 -1.10284
0.4179869257362703 -0.8527773131943216 -0.3131417953812863 -0.416842
0.849091113124038 0.489289466636609 -0.19909821559281882 0.673535
0 0 0 1
