0.29156905451298837 -0.21370315708995224 0.9323724830239197 -1.14191
0.4227848884779182 -0.8455566065976662 -0.32601681415803385 -0.442192
0.8580445352807258 0.48924941051454207 -0.15618767488523805 0.744412
0 0 0 1
