0.2919597507759713 -0.20749271747099246 0.9336521172917327 -1.14275
0.4252058608335086 -0.8462490926965563 -0.32103340795482593 -0.449593
0.8567143513678683 0.49072318602931086 -0.15884355464914118 0.751536
0 0 0 1
