0.2945174889421738 -0.22579087468811565 0.9285892146771748 -1.12647
0.42183745461904576 -0.8411813042304352 -0.33832997989198144 -0.432395
0.8575037087894846 0.49135780681776053 -0.15249555761240785 0.718157
0 0 0 1
