0.2928859302809751 -0.2127994071431617 0.9321664251425099 -1.14194
0.4218451096823065 -0.8461457199777224 -0.32570557870645156 -0.446977
0.8580585849932221 0.4886244292735481 -0.15805578710230375 0.747909
0 0 0 1
