0.2673184236991733 -0.2269084379164173 0.9365113032704523 -1.13963
0.4379720229017022 -0.8370820009667955 -0.3278326262177347 -0.459877
0.8583247447827543 0.4978014508413545 -0.12438789343767502 0.801479
0 0 0 1
