0.2181663529994082 -0.25630614153163533 0.9416531230936915 -1.13051
0.44910670528326935 -0.8302854546168128 -0.33004428660614504 -0.483215
0.8664332690337695 0.49490728996946276 -0.06603154281506554 0.843372
0 0 0 1
