0.0997050103502553 -0.3567634372734455 0.9288588486610286 -1.1081
0.47265043331254575 -0.8044856816318462 -0.35972816950970965 -0.517465
0.8755915022432083 0.47489223817007153 0.0884131400036318 0.952446
0 0 0 1
