0.10571324880096922 -0.35054192392728395 0.9305616952127908 -1.11011
0.4692316390323776 -0.8074820830144505 -0.357483362608154 -0.5133
0.8767248017245396 0.47443971711904837 0.07912380716993095 0.944992
0 0 0 1
