0.03240622310886494 -0.4218089318829203 0.9061054362973486 -1.08568
0.5168214861864272 -0.7688976525775548 -0.37641991349658754 -0.569115
0.8554796246082492 0.48049310592818684 0.19308285018512955 1.04758
0 0 0 1
