0.04594793193313064 -0.41401283011318263 0.9091106445602434 -1.09036
0.5094096138075527 -0.7731374198422715 -0.37783644001085315 -0.559117
0.8592965919352341 0.48047050538124403 0.17537805035745935 1.03602
0 0 0 1
