0.07104165461682006 -0.39568126329598574 0.9156360746419931 -1.09713
0.49515513628328556 -0.782877248616658 -0.37672882105128713 -0.543806
0.865895186683461 0.480145344114576 0.1403067147484754 1.00829
0 0 0 1
