-0.05622956356319281 -0.4619154088552145 0.8851397580289867 -1.06578
0.5332440726359692 -0.7634019838677866 -0.36451086407037714 -0.621539
0.8440906320888167 0.4514992426226735 0.28923941420742455 1.11043
0 0 0 1
