-0.05294207935192166 -0.46502961850665875 0.8837106936919151 -1.06152
0.5314333878049461 -0.762348428251345 -0.3693283475024105 -0.628023
0.8454440789076781 0.45008035710776695 0.2874925765749309 1.12151
0 0 0 1
