-0.04958486384036857 -0.4615644043784099 0.8857198439059246 -1.034
0.5317251117646224 -0.7628895059140967 -0.3677879923067702 -0.654033
0.8454642197023075 0.4527227654723681 0.28325315678067803 1.16078
0 0 0 1
