-0.05241460586148049 -0.462160504021283 0.8852459418800965 -1.05184
0.5273585519520758 -0.7655883134635004 -0.3684664054851173 -0.639383
0.8480245673183032 0.44752899661464035 0.2838523038724503 1.1332
0 0 0 1
