-0.05515272302424756 -0.5091008596640816 0.8589380023216482 -1.0054
0.5557237387330025 -0.7303450040736321 -0.39719932179360506 -0.674389
0.8295355949877161 0.4554256138097411 0.32319994884652503 1.19533
0 0 0 1
