-0.12679151527714821 -0.5549321212900628 0.8221765336071297 -0.955332
0.584525445818539 -0.7114635680637228 -0.3900635775212478 -0.725922
0.8014074586902488 0.43112635279990424 0.4145794894553874 1.22767
0 0 0 1
