-0.10176193390407662 -0.5373757224044767 0.83718088952052 -0.97487
0.5734788220388566 -0.7193332090617612 -0.39202267155591136 -0.704884
0.8128754821502663 0.4402125251638978 0.38137433475234916 1.21101
0 0 0 1
