-0.13330212806712563 -0.5647940693668532 0.814394377350928 -0.926423
0.5877770412095848 -0.7066683086196055 -0.3938756801576 -0.770577
0.797965345412745 0.4261778511381561 0.4261733763617598 1.25983
0 0 0 1
