-0.12981447598342574 -0.5598222693068934 0.8183808579220491 -0.930935
0.58838328708698 -0.7078323279330846 -0.39086890770378613 -0.762967
0.798093546711079 0.4307811768414569 0.42127694973404406 1.25618
0 0 0 1
