-0.1307021038539009 -0.5619913788545604 0.8167512780163335 -0.929149
0.5879682347919405 -0.707245621743039 -0.39255188880064246 -0.766449
0.7982545426891186 0.42891644946125856 0.42287156969667994 1.25823
0 0 0 1
