-0.1365873126527883 -0.554140215940183 0.821140990999753 -0.945766
0.5875539303996374 -0.7126877634809724 -0.38321864601872846 -0.737673
0.7975739996352861 0.4301218116560199 0.4229313682425504 1.23238
0 0 0 1
