-0.17977123102944306 -0.5811695073894145 0.7936777105191398 -0.908933
0.595931571298588 -0.7062615514496081 -0.382178208789549 -0.791633
0.7826543725194118 0.4042729580676121 0.47330276626226064 1.27453
0 0 0 1
