-0.15378264597543487 -0.5718971927580819 0.8057819175882637 -0.919714
0.5903234300644452 -0.7071276613707479 -0.3892155167015891 -0.780168
0.7923819443385507 0.4158173534615434 0.44634827528119303 1.26735
0 0 0 1
