-0.2836591409699538 -0.6444119293513427 0.7101202412647227 -0.860214
0.6457177791780456 -0.6758404153717821 -0.35537062709721784 -0.838288
0.708933030262775 0.3577331383304841 0.607816551553725 1.3122
0 0 0 1
