-0.2555059562765667 -0.6264940541203136 0.7363571867369058 -0.874344
0.6331362531597363 -0.6840257339086808 -0.36228066507273116 -0.825934
0.7306539476674626 0.3736495624279301 0.5714287473127063 1.30002
0 0 0 1
