-0.35135267161724193 -0.6817661071501349 0.6416745867562291 -0.807167
0.7020439116399066 -0.6452973692377324 -0.301206990928499 -0.878608
0.6194236403922325 0.3446538559137452 0.7053566993564474 1.3606
0 0 0 1
