-0.3803901149172605 -0.7170262506843251 0.5841033438551884 -0.7431
0.7403218115570068 -0.6146119874690125 -0.27235219880210587 -0.922401
0.5542805930268393 0.32882436145907673 0.7646224973834118 1.41519
0 0 0 1
