-0.3649514092933738 -0.6882079167312465 0.6270409334351451 -0.785979
0.7151274915501791 -0.6384648300882577 -0.28452650416001746 -0.894456
0.5961569757068425 0.3445758611522428 0.7251650406819549 1.37806
0 0 0 1
