-0.3817209280617504 -0.7200821458252895 0.5794573636975566 -0.738438
0.7434776556303653 -0.6116784352955202 -0.2703524872694904 -0.924526
0.5491175727092075 0.3276143999552989 0.7688554456358344 1.42108
0 0 0 1
