-0.38075928430977957 -0.7368074108132497 0.558692408023037 -0.721235
0.7561813443066286 -0.5958522312194423 -0.27046236905239185 -0.933863
0.5321767957498001 0.3194917180796514 0.7840362875173497 1.43559
0 0 0 1
