-0.38726163468718994 -0.7642317254244808 0.515730836923803 -0.637766
0.7726739852338567 -0.5742025242406374 -0.27067761950059716 -0.968691
0.5029943725751167 0.2936687436728686 0.8128685811048202 1.49031
0 0 0 1
