-0.4010721861109172 -0.765983876962603 0.5024040224376691 -0.586233
0.7780296522140305 -0.5743428627828369 -0.25455870883969045 -0.98273
0.483540031232084 0.28878880900020254 0.8263111169482836 1.50806
0 0 0 1
