-0.43933492267064134 -0.7845856236591089 0.4375045426843344 -0.509004
0.7836743663875605 -0.5728146782774872 -0.2402869780427439 -1.01221
0.43913473238749506 0.23729463436265424 0.8665171338834894 1.5559
0 0 0 1
