-0.439937926194772 -0.7869048880854627 0.432706965743156 -0.506337
0.7857975698748186 -0.5705699317961337 -0.23868835771563038 -1.01352
0.43471461934730543 0.2350120210486281 0.8693633013236564 1.55747
0 0 0 1
