-0.4348012774408165 -0.7713478015191979 0.46472617553494244 -0.532447
0.7738975929050811 -0.5839381999783835 -0.24515035040098673 -1.00363
0.46046755024817476 0.25305878308706337 0.8508412821854257 1.5334
0 0 0 1
