-0.5133430207175564 -0.8103866624507886 0.28240467489481463 -0.43765
0.8083919181334122 -0.5670862286635321 -0.157847128440003 -1.02561
0.2880650096369863 0.14726393510307859 0.9462197861177917 1.58052
0 0 0 1
