-0.5093836745651874 -0.8092101233580541 0.2927580030354591 -0.443752
0.8060185253205615 -0.5678199959064782 -0.16707659647249873 -1.02652
0.30143392132693775 0.15086228323742684 0.94147658630996 1.57553
0 0 0 1
