-0.5200741140450988 -0.822467109770526 0.23037093837097447 -0.405389
0.8216847363989713 -0.5554050125013845 -0.1279041283825124 -1.0276
0.23314611270437 0.1227726575180921 0.9646604401014829 1.59089
0 0 0 1
