-0.5146303792149131 -0.8142223824835919 0.26869589623188883 -0.430159
0.8121842950756843 -0.5633646075784381 -0.1515816273840797 -1.02654
0.2747949119280203 0.1402220766881433 0.9512231733866326 1.58024
0 0 0 1
