-0.5257827791955134 -0.8403003797469526 0.1320898970344405 -0.333633
0.8411892055357462 -0.536704880584371 -0.06594385223094076 -1.02547
0.12630593648590768 0.07644045364885721 0.9890417925721717 1.61174
0 0 0 1
