-0.5292233882357131 -0.8310888414971607 0.1709208673135568 -0.364727
0.8315305993131787 -0.5480837001178183 -0.09033891780969498 -1.02797
0.16875860792912753 0.09431646305957582 0.981134515265748 1.60427
0 0 0 1
