-0.5257745255444328 -0.8415786414933759 0.12371959614664878 -0.325978
0.8424173228716973 -0.5353198076361316 -0.06136576959589903 -1.02504
0.11787367142075615 0.07195897257867466 0.9904179440272741 1.61257
0 0 0 1
