-0.5261701757313348 -0.8449350500409225 0.09607136609417055 -0.297343
0.8460410407601338 -0.5315315230031119 -0.04109498027134491 -1.02106
0.08578754874902353 0.05965736556651059 0.9945257639766291 1.61531
0 0 0 1
