-0.5264157732436279 -0.8493368954200412 0.03890079380372076 -0.254746
0.8497583742515368 -0.5270938138302297 -0.009100374238939406 -1.01288
0.028233651370287854 0.028265694757946325 0.9992016370233546 1.6165
0 0 0 1
