-0.526213162413599 -0.8503129746124383 0.008219057636133663 -0.236738
0.8503176631234972 -0.5262546389613051 -0.003990833484491235 -1.01165
0.007718774700286343 0.004888780773694296 0.9999582592986933 1.61231
0 0 0 1
