-0.5312308124560281 -0.84183245167739 -0.09545651994569826 -0.117384
0.8424955714109855 -0.536791248054949 0.04534719577313976 -0.979205
-0.08941496547103031 -0.056331867663387596 0.9944001632317692 1.6136
0 0 0 1
