-0.5307006993238386 -0.8273292526197074 -0.18407356001583985 -0.0320548
0.8349735881367173 -0.5476293949480462 0.05404769100463349 -0.969065
-0.14551932810209156 -0.12501341347452744 0.9814253774995644 1.62941
0 0 0 1
