-0.518036838801527 -0.79808243503476 -0.3077373239201072 0.0683233
0.8120024575717817 -0.5719383816803439 0.1163550448337162 -0.944039
-0.26886770453497677 -0.18960726370542216 0.9443300498280434 1.622
0 0 0 1
