-0.5144604402793731 -0.7970101970477624 -0.3163940599781233 0.0775004
0.8114677387711015 -0.5717658549061451 0.1208466635747982 -0.94207
-0.2772193433389324 -0.194572744662072 0.9408989758275854 1.61885
0 0 0 1
