-0.49996124171632783 -0.7950496390625367 -0.343416406433935 0.157267
0.8020321455200295 -0.57466836425202 0.16279038264113088 -0.918815
-0.32677697950437967 -0.19404211541425143 0.9249672767787823 1.59925
0 0 0 1
