-0.5021741775219779 -0.796295510651818 -0.3372455413284001 0.14197
0.8038612611291213 -0.5736109407734749 0.1574088989888066 -0.924253
-0.3187917318344755 -0.19205194177807683 0.9281637158245557 1.60398
0 0 0 1
