-0.48875138781907823 -0.7795987031619659 -0.39159665848051595 0.203009
0.7883853510239128 -0.586890893126344 0.18441154480201014 -0.901824
-0.3735915138166638 -0.2185976706041103 0.9014679357640127 1.57719
0 0 0 1
