-0.47780819820057324 -0.7751818298335813 -0.4132704398189908 0.217851
0.7862450421429821 -0.5871988758455486 0.19239598205603003 -0.898052
-0.39181380710472913 -0.2330034568447097 0.8900513073191418 1.56792
0 0 0 1
