-0.4608610884030091 -0.7553868475285417 -0.46583019199799147 0.254123
0.7710155462031962 -0.60072487944891 0.21134012095217358 -0.892983
-0.43947933365401914 -0.2617638817560289 0.8592657246155202 1.5491
0 0 0 1
