-0.44988086830835855 -0.7495566406365767 -0.48556363826766 0.315124
0.7737120616339296 -0.5986641899787606 0.20729407449140624 -0.860192
-0.44606821228629534 -0.2824288053911715 0.8492685793510932 1.54621
0 0 0 1
