-0.4483399394513514 -0.7472089763776264 -0.49058133302588897 0.326223
0.7704896017921345 -0.601282509311438 0.2116721935596126 -0.843712
-0.4531413380204417 -0.28308671748572034 0.8452957104825526 1.55158
0 0 0 1
