-0.4457623257234147 -0.7474110310827029 -0.492618208739327 0.329485
0.769871657524493 -0.6008830693268379 0.21502829566558923 -0.840017
-0.4567204614489501 -0.2834012837166573 0.843261603822686 1.55286
0 0 0 1
