-0.44172443517973947 -0.747580971603435 -0.4959861028916072 0.340815
0.7625870432953523 -0.6040938893961377 0.23136891362561873 -0.830244
-0.4725891712292953 -0.27603127303026886 0.8369385948479713 1.55468
0 0 0 1
