-0.44416593856244313 -0.7404927690525647 -0.5043679985901259 0.350479
0.7526578204595296 -0.6137747309680733 0.23829977953447576 -0.821954
-0.48602759625565983 -0.2737718732922255 0.8299555030674904 1.55724
0 0 0 1
