-0.41660749255888774 -0.7002669890600106 -0.5797105667284523 0.404621
0.7244068700542496 -0.6409923007919324 0.2536997377682332 -0.797257
-0.5492475614529406 -0.3142531055666624 0.774320412929755 1.56408
0 0 0 1
