-0.4184131517061933 -0.726506295165513 -0.5450862661672652 0.381786
0.7391858228760373 -0.6211122691276931 0.26043016030814053 -0.805578
-0.5277639185643196 -0.29395263602139826 0.7969046957056444 1.56519
0 0 0 1
