-0.41988383221659714 -0.7121757305014642 -0.5625862567889569 0.391959
0.7252736253020695 -0.6359428092609918 0.26373265211276165 -0.802482
-0.5455966787694896 -0.2972918973566948 0.7835443777360405 1.56542
0 0 0 1
