-0.41945191771109264 -0.689769828678531 -0.5901505504303771 0.42649
0.7050218765842344 -0.6570564800573615 0.2668725080488336 -0.787732
-0.5718428475255518 -0.3041288632461911 0.7619064196306842 1.56155
0 0 0 1
