-0.4180892902614468 -0.6843055836641012 -0.5974338570375914 0.448877
0.7029632664224659 -0.6602757609020664 0.2643455420956714 -0.770537
-0.5753642250169337 -0.3094540155359612 0.7570959125760304 1.56091
0 0 0 1
