-0.44011617345479015 -0.6635266222736869 -0.6050042771729676 0.466316
0.6777000889557294 -0.6874711936596672 0.26097116185040226 -0.756904
-0.5890843261307412 -0.29515382332306717 0.752239242053262 1.56092
0 0 0 1
