-0.47888687882379555 -0.6365058800214115 -0.6045888040549311 0.487174
0.6377456972168482 -0.7255151774267997 0.2586661033161393 -0.745875
-0.6032808491671185 -0.2617021054969329 0.753368585094091 1.56719
0 0 0 1
