-0.4235339067208098 -0.6768872870645505 -0.6020320842514965 0.458704
0.6964334208354969 -0.668300046859248 0.2614489198893244 -0.762098
-0.5793095202058877 -0.3085427814393322 0.7544546585584215 1.56263
0 0 0 1
