-0.4655805829528547 -0.6286512644042834 -0.6229223936737026 0.519179
0.6411231581896131 -0.7247897803116865 0.25227142206106773 -0.734695
-0.6100785333137498 -0.28191729659358017 0.7404909324705542 1.58995
0 0 0 1
