-0.46813838079153525 -0.6043395035898055 -0.6446861413360044 0.534716
0.6339008515743055 -0.737963509794117 0.23147260871584427 -0.734587
-0.6156428890219147 -0.30030588174921835 0.728560368523827 1.59642
0 0 0 1
