-0.46721567792777063 -0.6118744033748266 -0.6382156569633761 0.52986
0.637158473332356 -0.7334687790479976 0.23675436642778386 -0.735232
-0.6129751953866285 -0.29602916183467437 0.732549073567215 1.59512
0 0 0 1
