-0.48441314907869026 -0.5831535598003996 -0.6521317556228867 0.561135
0.6168168337605977 -0.7562840832684148 0.21810864032496446 -0.727332
-0.6203876970002047 -0.29659115139696146 0.7260528867264471 1.59351
0 0 0 1
