-0.4924421738215506 -0.5535864463023792 -0.6715971649078105 0.601217
0.6169593628159415 -0.7663044398298329 0.17927255822025195 -0.695429
-0.6138907476706692 -0.3260667906539842 0.7189009653331658 1.59283
0 0 0 1
