-0.4946412819733053 -0.554080483482699 -0.6695706236024574 0.601058
0.6154588299649785 -0.7672770210584634 0.18026758325830466 -0.696279
-0.6136289031539703 -0.3229253641001721 0.7205406153957086 1.59206
0 0 0 1
