-0.4762571547484907 -0.5550958830478476 -0.6819440469526826 0.598806
0.633414046784661 -0.7545023684688967 0.1717929605970644 -0.692909
-0.6098899637530951 -0.35013531184123015 0.7109426808928361 1.60146
0 0 0 1
