-0.47362899524021906 -0.5572934189846783 -0.6819821258831555 0.599156
0.6352088819068269 -0.7525315447874994 0.1737985916122985 -0.692445
-0.6100698740426536 -0.35088505134318204 0.7104184890115637 1.6023
0 0 0 1
