-0.48602534189166857 -0.5550546393431884 -0.6750508976237938 0.600151
0.6216278267346752 -0.7624940747226555 0.17939239404714466 -0.694646
-0.6142948901531017 -0.3324411727756422 0.7156288525313552 1.59455
0 0 0 1
