-0.4803555255345193 -0.5512823569321528 -0.6821629805433495 0.598991
0.6287960966422412 -0.7586820211444125 0.17034394512195117 -0.693466
-0.6114524003844756 -0.3471157641588172 0.7110812951670881 1.59935
0 0 0 1
