-0.4821855153874214 -0.5542262380465008 -0.6784765329850327 0.599057
0.6230001592729764 -0.7614145989590796 0.17921665669750192 -0.69492
-0.6159285107026732 -0.33627531213695666 0.712426125398823 1.5952
0 0 0 1
