-0.4835518784731685 -0.5516119904374928 -0.6796335724717091 0.598795
0.6223242781621128 -0.7626644470485155 0.17622552033740047 -0.695146
-0.6155404727839395 -0.33773829100913266 0.7120693597895889 1.59582
0 0 0 1
