-0.4680818005346854 -0.5684170847564485 -0.676610261350792 0.600411
0.643527846953704 -0.7439972369078167 0.17983331634784444 -0.689996
-0.605616494328991 -0.3512408422016355 0.7140437889696603 1.60586
0 0 0 1
