-0.47000810793912373 -0.5680765279969657 -0.6755600911913001 0.600129
0.6422335912992843 -0.7451328657804853 0.17975824470823343 -0.690998
-0.6054984662889816 -0.34937955102248575 0.7150563171170626 1.60461
0 0 0 1
