-0.4700764438947924 -0.5642587006256765 -0.6787048369235698 0.601169
0.6365997370704057 -0.749385094936633 0.18210643659328457 -0.690732
-0.6113664299396202 -0.3464593746098334 0.7114752209935682 1.60777
0 0 0 1
