-0.47439848774067406 -0.5614902185789582 -0.6779932221412802 0.601119
0.6322543783954803 -0.7532253054528125 0.18140022112793075 -0.69107
-0.6125361016536955 -0.34260819264236975 0.7123335949576031 1.60728
0 0 0 1
