0.8622070897661177 -0.3491858146293004 0.36697166269170395 0.9009548838634105
0.0 -0.7244444763103486 -0.6893331565675809 5.184953835047681
0.5065559538264671 0.5943479348034255 -0.6246211636166846 2.9220845684251593
0.0 0.0 0.0 1.0