0.8437596713975261 -0.36815747803241483 0.39055049390821517 0.8541513831371852
0.0 -0.7276599358802889 -0.685938056762193 5.1866156503975915
0.5367211724192915 0.5787668693727256 -0.6139701083874974 2.8945087810289922
0.0 0.0 0.0 1.0