0.8093828793293132 -0.39915731318744246 0.430781608216475 0.773944083792297
-7.567793476654543e-17 -0.7335183155103404 -0.679669685075679 5.187649600743529
0.5872813249615473 0.5501130066994007 -0.5936971662485468 2.8469142218463723
0.0 0.0 0.0 1.0