0.8236815315201279 -0.3868801820335655 0.4145750346829051 0.8063227834413081
0.0 -0.7311049819299287 -0.6822649818048986 5.187485157405206
0.5670526735962513 0.5619690651156111 -0.6021976712180391 2.866191100483812
0.0 0.0 0.0 1.0