0.7270078211061447 -0.45668692419460755 0.5127345134864287 0.6078569777821432
0.0 -0.7467415162817211 -0.6651143569802687 5.18405030571089
0.6866291779778193 0.4835433394546394 -0.5428869226814729 2.7460578325693357
0.0 0.0 0.0 1.0