0.6891489243795682 -0.47726906050564116 0.5452412346022146 0.540322287003598
-1.4754744553257034e-16 -0.752451538972988 -0.658647615570862 5.180826580533171
0.7246197347757544 0.4539062958158269 -0.5185511687309853 2.7037822100529207
0.0 0.0 0.0 1.0