0.6167384182336622 -0.5089969637481886 0.6004630000006373 0.4221712080525606
1.4554305985410475e-16 -0.7628141291917774 -0.646617819353434 5.173236218096043
0.7871681672137412 0.3987940511097369 -0.47045677944402536 2.6274195814976826
0.0 0.0 0.0 1.0