0.6792699684099198 -0.48215102744607813 0.5532835590807644 0.5234121631635744
-1.4726262535593847e-16 -0.7539068531079844 -0.6569813215281055 5.179884747229617
0.733888486090623 0.44626768152030355 -0.5121062842946826 2.693053588473233
0.0 0.0 0.0 1.0