0.513806914422404 -0.5406055064940433 0.6661442344117733 0.2730826251340507
0.0 -0.7764770821192352 -0.6301454918854839 5.160730549309832
0.8579058542122956 0.32377311082286847 -0.3989592936833957 2.5252821743445
0.0 0.0 0.0 1.0