0.5607541540276755 -0.5279032602726075 0.6378659157959906 0.3387229594868358
0.0 -0.7703858815576519 -0.6375779117069847 5.166595271001114
0.8279823541239911 0.3575244625059822 -0.4319970832877259 2.571184931086881
0.0 0.0 0.0 1.0