0.44051975345637584 -0.5554996769271693 0.7052392897084964 0.1773468929992186
0.0 -0.785569315636117 -0.6187736664815359 5.15129413888573
0.8977429179975377 0.27258202300374396 -0.3460588012469162 2.455057530140354
0.0 0.0 0.0 1.0