0.42803927695659855 -0.5574953992242705 0.7113235952969952 0.16178249033114955
0.0 -0.7870712256412071 -0.6168621286540841 5.149670823488936
0.9037601326582579 0.26404121953100246 -0.3368973983368062 2.4432067527936763
0.0 0.0 0.0 1.0