0.4029009884302095 -0.5610737718253502 0.7230954405136538 0.13104096129818324
0.0 -0.7900579296512014 -0.6130321914836587 5.1463976748584175
0.9152435705985376 0.24699127588830358 -0.31831512077359386 2.4193887540711287
0.0 0.0 0.0 1.0