0.2751989847954909 -0.5710219288459255 0.7734335624632603 -0.013428766074691711
2.1467093726614274e-17 -0.8044973878879008 -0.5939561876784724 5.129987969340352
0.9613872886446602 0.16345613986211566 -0.22139686441737447 2.2982377693127978
0.0 0.0 0.0 1.0