0.12389919957427456 -0.5677103454436128 0.8138513082997091 -0.1604076133745983
0.0 -0.8201708814382297 -0.5721186286434286 5.112175114968866
0.9922948091897156 0.07088504015045244 -0.1016185157243239 2.1494104503393925
0.0 0.0 0.0 1.0