0.21137376908515648 -0.5714320094438287 0.7929606474004389 -0.07867018790146434
-2.200907920914093e-17 -0.8112915323369404 -0.5846418130431479 5.122153173965613
0.9774053047445235 0.12357794358770957 -0.17148574901693123 2.2365931055662074
0.0 0.0 0.0 1.0