0.19870760270975857 -0.5711886322971068 0.7964036884394127 -0.09106715742705794
2.2104642795045898e-17 -0.8126080527318122 -0.5828105632496827 5.1206457514428365
0.9800588189620768 0.11580888985726856 -0.16147139810098343 2.224195124611388
0.0 0.0 0.0 1.0