0.22408088575512586 -0.571570785845372 0.7893634102283319 -0.06604846013836937
0.0 -0.8099602541325026 -0.5864847710943665 5.123682936335898
0.974570549852189 0.13142002698871788 -0.18149661117245808 2.248969444244518
0.0 0.0 0.0 1.0