0.09955335667413817 -0.5658636488696661 0.8184665295922727 -0.18146282089928817
5.679252412739927e-18 -0.8225527866019987 -0.5686887665967093 5.109615095481662
0.9950322251941953 0.056614875617577914 -0.08188789094789503 2.12435579629768
0.0 0.0 0.0 1.0