0.02889900472998391 -0.5586698836347743 0.8288864871893643 -0.2378107336629688
2.875777696494679e-18 -0.8292328274400361 -0.5589033171272141 5.102935138762403
0.999582336541426 0.016151749605263062 -0.023964003402447528 2.048927944846642
0.0 0.0 0.0 1.0