-0.07853891827772452 -0.5430352026579373 0.83602895104776 -0.30624303750482035
5.801116191915256e-18 -0.8386194058479229 -0.5447178096365829 5.096033508880973
0.9969110483467243 -0.04278154753546868 0.0658642609820039 1.9228297931253586
0.0 0.0 0.0 1.0