-0.08843339945643912 -0.5413449633581628 0.8361370488785479 -0.31115556143214007
0.0 -0.8394258421610096 -0.5434742454912468 5.095692575512429
0.9960820919284604 -0.04806127504581428 0.07423328081388235 1.910225617055614
0.0 0.0 0.0 1.0