-0.0684776888926981 -0.5447143445643843 0.8358212063292653 -0.30096225613532884
0.0 -0.8377877891454476 -0.5459959893248145 5.096443550786758
0.9976526480313249 -0.037388543493645565 0.057369771583203326 1.9354380855184259
0.0 0.0 0.0 1.0