-0.12706460860135108 -0.5344037474781757 0.8356238507380385 -0.3272854046666852
0.0 -0.8424523970071471 -0.5387707850068637 5.095057041599935
0.9918944425900296 -0.0684586989227398 0.10704588409098317 1.8587706198784646
0.0 0.0 0.0 1.0