-0.2388915998061398 -0.5099317567291461 0.8263778839134008 -0.3398499892250072
-2.2936593844041815e-17 -0.8510180549763197 -0.5251364299915994 5.095057041599935
0.9710462417115178 -0.1254506818771781 0.20330106461720238 1.6902314105260827
0.0 0.0 0.0 1.0