-0.229658134409343 -0.5122278159519504 0.8275746527442188 -0.34070993297733965
2.2969810851820012e-17 -0.8503020701875346 -0.5262949642878915 5.095057041599935
0.973271360566836 -0.12086791964738892 0.1952787871236714 1.7051898253313147
0.0 0.0 0.0 1.0