-0.25728181904739855 -0.5052111667717567 0.8237522337188421 -0.3371663456978456
0.0 -0.8524487140660642 -0.5228108547908256 5.095057041599936
0.9663364142924874 -0.13450972773830897 0.21931955579953272 1.6598713076446143
0.0 0.0 0.0 1.0