-0.4321963873439583 -0.450337306896003 0.7812826586994532 -0.24886146237230414
2.1684949910712274e-17 -0.8663788109433535 -0.4993873806459082 5.095057041599935
0.9017795089526215 -0.2158334218003237 0.3744457921610715 1.330388428482931
0.0 0.0 0.0 1.0