-0.4403653949586097 -0.4473205376500803 0.7784488779100338 -0.24195192151597705
0.0 -0.8670446781563005 -0.49823039457748575 5.095057041599936
0.8978186447846511 -0.21940342448849842 0.38181647214305986 1.3129952007129637
0.0 0.0 0.0 1.0