-0.40730229024168274 -0.4592732950996879 0.7894130001286748 -0.2683503680700468
2.1910612217031907e-17 -0.8643585899703331 -0.5028759568168849 5.095057041599934
0.9132934054091708 -0.20482252891899475 0.3520552332849882 1.3821764655751458
0.0 0.0 0.0 1.0