-0.423961847256897 -0.453335877432633 0.7840554408349605 -0.25556802287799457
0.0 -0.8657090782378362 -0.5005474921089866 5.095057041599935
0.9056800495045254 -0.212213039394333 0.3670276199967786 1.3477190004035187
0.0 0.0 0.0 1.0