-0.48792288113208615 -0.4289104442985445 0.7602414700865701 -0.1965377757585513
0.0 -0.8709508744375385 -0.4913700991274163 5.095057041599935
0.872886740687338 -0.2397507144684078 0.4249568599800736 1.2075400169558645
0.0 0.0 0.0 1.0