-0.5399775358577087 -0.4070399208593418 0.7367107733675797 -0.13614038326996317
-4.089566315410463e-17 -0.8752866569019873 -0.4836044543315774 5.095057041599935
0.841679428742937 -0.26113554157977703 0.4726351321630669 1.0829686974698012
0.0 0.0 0.0 1.0