-0.6196548193817589 -0.3698061436546688 0.6922942444742857 -0.019211459827532126
0.0 -0.8820445652665858 -0.4711659844297759 5.095057041599936
0.7848744516271119 -0.29196027298066146 0.5465631657769282 0.8692901129439414
0.0 0.0 0.0 1.0