-0.7008756549567404 -0.3265787385673519 0.6341290434956572 0.1382078177610367
-6.244026713524418e-17 -0.8890280868117035 -0.4578526628293451 5.095057041599935
0.7132834754071905 -0.320897784934205 0.6230981426190907 0.6109792118601538
0.0 0.0 0.0 1.0