-0.6961137397885823 -0.3292755279749061 0.6379680932103114 0.12765519020052624
6.246896258212163e-17 -0.8886197070790622 -0.45864476034369056 5.095057041599934
0.7179315157294281 -0.3192689193572845 0.6185803875446404 0.6276578937169212
0.0 0.0 0.0 1.0