-0.7232841287780362 -0.3135975720536852 0.6152370533866037 0.19054939149508088
-6.230648183869178e-17 -0.8909370196021223 -0.45412688436436716 5.095057041599935
0.690550555034023 -0.3284627679121653 0.6444006060190214 0.5291401053589572
0.0 0.0 0.0 1.0