-0.7766952498312963 -0.28068118227855543 0.5638816922052109 0.33762684556418787
6.200799532479742e-17 -0.8952257034030987 -0.44561299348922384 5.095057041599935
0.6298765663917811 -0.34610549530618456 0.6953175513600678 0.30328998305108706
0.0 0.0 0.0 1.0